%YAML 1.1
%TAG !u! tag:unity3d.com,2011:
--- !u!74 &7400000
AnimationClip:
  m_ObjectHideFlags: 0
  m_PrefabParentObject: {fileID: 0}
  m_PrefabInternal: {fileID: 0}
  m_Name: jellyButtonMusicOnPauseTrue
  serializedVersion: 4
  m_AnimationType: 2
  m_Compressed: 0
  m_UseHighQualityCurve: 1
  m_RotationCurves:
  - curve:
      serializedVersion: 2
      m_Curve:
      - time: 0
        value: {x: 0, y: 0, z: 0, w: 1}
        inSlope: {x: 0, y: 0, z: 12.4747114, w: -1.3111459}
        outSlope: {x: 0, y: 0, z: 12.4747114, w: -1.3111459}
        tangentMode: 370072992
      - time: .0166666675
        value: {x: 0, y: 0, z: .207911864, w: .978147566}
        inSlope: {x: 0, y: 0, z: 12.2021084, w: -2.59364057}
        outSlope: {x: 0, y: 0, z: 12.2021084, w: -2.59364057}
        tangentMode: 0
      - time: .0333333351
        value: {x: 0, y: 0, z: .40673694, w: .91354531}
        inSlope: {x: 0, y: 0, z: 11.3962154, w: -5.07392693}
        outSlope: {x: 0, y: 0, z: 11.3962154, w: -5.07392693}
        tangentMode: 899992781
      - time: .0500000045
        value: {x: 0, y: 0, z: .587785721, w: .809016645}
        inSlope: {x: 0, y: 0, z: 10.0922499, w: -7.33245659}
        outSlope: {x: 0, y: 0, z: 10.0922499, w: -7.33245659}
        tangentMode: 0
      - time: .0666666701
        value: {x: 0, y: 0, z: .743145287, w: .669130087}
        inSlope: {x: 0, y: 0, z: 8.34720421, w: -9.27052307}
        outSlope: {x: 0, y: 0, z: 8.34720421, w: -9.27052307}
        tangentMode: 1
      - time: .0833333358
        value: {x: 0, y: 0, z: .866025865, w: .499999255}
        inSlope: {x: 0, y: 0, z: 6.23734665, w: -10.8034258}
        outSlope: {x: 0, y: 0, z: 6.23734665, w: -10.8034258}
        tangentMode: 0
      - time: .100000001
        value: {x: 0, y: 0, z: .951056838, w: .30901593}
        inSlope: {x: 0, y: 0, z: 3.85488534, w: -11.8641615}
        outSlope: {x: 0, y: 0, z: 3.85488534, w: -11.8641615}
        tangentMode: 1
      - time: .116666667
        value: {x: 0, y: 0, z: .994522035, w: .104527235}
        inSlope: {x: 0, y: 0, z: 1.30394709, w: -12.4063702}
        outSlope: {x: 0, y: 0, z: 1.30394709, w: -12.4063702}
        tangentMode: 1065325259
      - time: .13333334
        value: {x: 0, y: 0, z: .994521737, w: -.104529813}
        inSlope: {x: 0, y: 0, z: -1.30397928, w: -12.4063663}
        outSlope: {x: 0, y: 0, z: -1.30397928, w: -12.4063663}
        tangentMode: 370073456
      - time: .150000006
        value: {x: 0, y: 0, z: .951056063, w: -.309018403}
        inSlope: {x: 0, y: 0, z: -3.85491586, w: -11.864151}
        outSlope: {x: 0, y: 0, z: -3.85491586, w: -11.864151}
        tangentMode: 0
      - time: .166666672
        value: {x: 0, y: 0, z: .866024554, w: -.50000149}
        inSlope: {x: 0, y: 0, z: -6.23737192, w: -10.8034048}
        outSlope: {x: 0, y: 0, z: -6.23737192, w: -10.8034048}
        tangentMode: 72
      - time: .183333337
        value: {x: 0, y: 0, z: .743143678, w: -.669131875}
        inSlope: {x: 0, y: 0, z: -8.34723377, w: -9.27050495}
        outSlope: {x: 0, y: 0, z: -8.34723377, w: -9.27050495}
        tangentMode: 370073332
      - time: .200000003
        value: {x: 0, y: 0, z: .587783456, w: -.809018314}
        inSlope: {x: 0, y: 0, z: -10.0922728, w: -7.33243561}
        outSlope: {x: 0, y: 0, z: -10.0922728, w: -7.33243561}
        tangentMode: 1676158461
      - time: .216666669
        value: {x: 0, y: 0, z: .406734616, w: -.913546383}
        inSlope: {x: 0, y: 0, z: -11.3962259, w: -5.07389402}
        outSlope: {x: 0, y: 0, z: -11.3962259, w: -5.07389402}
        tangentMode: 5
      - time: .233333334
        value: {x: 0, y: 0, z: .207909286, w: -.978148103}
        inSlope: {x: 0, y: 0, z: -12.2021141, w: -2.59360862}
        outSlope: {x: 0, y: 0, z: -12.2021141, w: -2.59360862}
        tangentMode: 370073784
      - time: .25
        value: {x: 0, y: 0, z: -2.47160847e-06, w: -1}
        inSlope: {x: 0, y: 0, z: -12.4747047, w: 3.15904617e-05}
        outSlope: {x: 0, y: 0, z: -12.4747047, w: 3.15904617e-05}
        tangentMode: 0
      - time: .266666681
        value: {x: 0, y: 0, z: -.207914352, w: -.97814703}
        inSlope: {x: 0, y: 0, z: -12.202096, w: 2.59367061}
        outSlope: {x: 0, y: 0, z: -12.202096, w: 2.59367061}
        tangentMode: 0
      - time: .283333361
        value: {x: 0, y: 0, z: -.406739354, w: -.913544238}
        inSlope: {x: 0, y: 0, z: -11.3962059, w: 5.07396078}
        outSlope: {x: 0, y: 0, z: -11.3962059, w: 5.07396078}
        tangentMode: -192
      - time: .300000042
        value: {x: 0, y: 0, z: -.587788224, w: -.809014857}
        inSlope: {x: 0, y: 0, z: -10.0922337, w: 7.33248997}
        outSlope: {x: 0, y: 0, z: -10.0922337, w: 7.33248997}
        tangentMode: 1065353217
      - time: .316666722
        value: {x: 0, y: 0, z: -.743147433, w: -.669127703}
        inSlope: {x: 0, y: 0, z: -8.34716702, w: 9.27054024}
        outSlope: {x: 0, y: 0, z: -8.34716702, w: 9.27054024}
        tangentMode: 0
      - time: .333333403
        value: {x: 0, y: 0, z: -.866027355, w: -.499996603}
        inSlope: {x: 0, y: 0, z: -6.23731136, w: 10.8034458}
        outSlope: {x: 0, y: 0, z: -6.23731136, w: 10.8034458}
        tangentMode: 52
      - time: .350000083
        value: {x: 0, y: 0, z: -.951057971, w: -.309012562}
        inSlope: {x: 0, y: 0, z: -3.85484791, w: 11.8641796}
        outSlope: {x: 0, y: 0, z: -3.85484791, w: 11.8641796}
        tangentMode: 1
      - time: .366666764
        value: {x: 0, y: 0, z: -.994522393, w: -.104523592}
        inSlope: {x: 0, y: 0, z: -1.3039012, w: 12.406374}
        outSlope: {x: 0, y: 0, z: -1.3039012, w: 12.406374}
        tangentMode: 32
      - time: .383333445
        value: {x: 0, y: 0, z: -.994521379, w: .104533575}
        inSlope: {x: 0, y: 0, z: 1.30402458, w: 12.4063606}
        outSlope: {x: 0, y: 0, z: 1.30402458, w: 12.4063606}
        tangentMode: 0
      - time: .400000125
        value: {x: 0, y: 0, z: -.951054871, w: .309022129}
        inSlope: {x: 0, y: 0, z: 3.85496068, w: 11.8641291}
        outSlope: {x: 0, y: 0, z: 3.85496068, w: 11.8641291}
        tangentMode: 1065353216
      - time: .416666806
        value: {x: 0, y: 0, z: -.866022587, w: .500004888}
        inSlope: {x: 0, y: 0, z: 6.2374239, w: 10.8033867}
        outSlope: {x: 0, y: 0, z: 6.2374239, w: 10.8033867}
        tangentMode: 1702601888
      - time: .433333486
        value: {x: 0, y: 0, z: -.743140578, w: .669135332}
        inSlope: {x: 0, y: 0, z: 8.34727287, w: 9.27047157}
        outSlope: {x: 0, y: 0, z: 8.34727287, w: 9.27047157}
        tangentMode: -184
      - time: .450000167
        value: {x: 0, y: 0, z: -.587779939, w: .809020877}
        inSlope: {x: 0, y: 0, z: 10.0922976, w: 7.33238077}
        outSlope: {x: 0, y: 0, z: 10.0922976, w: 7.33238077}
        tangentMode: -255
      - time: .466666847
        value: {x: 0, y: 0, z: -.406730384, w: .913548231}
        inSlope: {x: 0, y: 0, z: 11.396246, w: 5.07384109}
        outSlope: {x: 0, y: 0, z: 11.396246, w: 5.07384109}
        tangentMode: 0
      - time: .483333528
        value: {x: 0, y: 0, z: -.207904756, w: .978149056}
        inSlope: {x: 0, y: 0, z: 12.2021275, w: 2.59355903}
        outSlope: {x: 0, y: 0, z: 12.2021275, w: 2.59355903}
        tangentMode: 52
      - time: .5
        value: {x: 0, y: 0, z: 4.94321694e-06, w: 1}
        inSlope: {x: 0, y: 0, z: 12.4747276, w: 1.31107187}
        outSlope: {x: 0, y: 0, z: 12.4747276, w: 1.31107187}
        tangentMode: 1
      m_PreInfinity: 2
      m_PostInfinity: 2
    path: 
  m_CompressedRotationCurves: []
  m_PositionCurves:
  - curve:
      serializedVersion: 2
      m_Curve:
      - time: 0
        value: {x: 0, y: 0, z: 0}
        inSlope: {x: 1.70000005, y: -3.75, z: 0}
        outSlope: {x: 1.70000005, y: -3.75, z: 0}
        tangentMode: 55
      - time: .5
        value: {x: .850000024, y: -1.875, z: 0}
        inSlope: {x: 1.70000005, y: -3.75, z: 0}
        outSlope: {x: 1.70000005, y: -3.75, z: 0}
        tangentMode: 125079200
      m_PreInfinity: 2
      m_PostInfinity: 2
    path: 
  m_ScaleCurves:
  - curve:
      serializedVersion: 2
      m_Curve:
      - time: 0
        value: {x: 0, y: 0, z: 0}
        inSlope: {x: 2, y: 2, z: 2}
        outSlope: {x: 2, y: 2, z: 2}
        tangentMode: 24
      - time: .5
        value: {x: 1, y: 1, z: 1}
        inSlope: {x: 2, y: 2, z: 2}
        outSlope: {x: 2, y: 2, z: 2}
        tangentMode: 125880100
      m_PreInfinity: 2
      m_PostInfinity: 2
    path: 
  m_FloatCurves: []
  m_PPtrCurves: []
  m_SampleRate: 60
  m_WrapMode: 0
  m_Bounds:
    m_Center: {x: 0, y: 0, z: 0}
    m_Extent: {x: 0, y: 0, z: 0}
  m_AnimationClipSettings:
    serializedVersion: 2
    m_StartTime: 0
    m_StopTime: .5
    m_OrientationOffsetY: 0
    m_Level: 0
    m_CycleOffset: 0
    m_LoopTime: 1
    m_LoopBlend: 0
    m_LoopBlendOrientation: 0
    m_LoopBlendPositionY: 0
    m_LoopBlendPositionXZ: 0
    m_KeepOriginalOrientation: 0
    m_KeepOriginalPositionY: 1
    m_KeepOriginalPositionXZ: 0
    m_HeightFromFeet: 0
    m_Mirror: 0
  m_EditorCurves:
  - curve:
      serializedVersion: 2
      m_Curve:
      - time: 0
        value: 0
        inSlope: 1.70000005
        outSlope: 1.70000005
        tangentMode: 10
      - time: .5
        value: .850000024
        inSlope: 1.70000005
        outSlope: 1.70000005
        tangentMode: 10
      m_PreInfinity: 2
      m_PostInfinity: 2
    attribute: m_LocalPosition.x
    path: 
    classID: 4
    script: {fileID: 0}
  - curve:
      serializedVersion: 2
      m_Curve:
      - time: 0
        value: 0
        inSlope: -3.75
        outSlope: -3.75
        tangentMode: 10
      - time: .5
        value: -1.875
        inSlope: -3.75
        outSlope: -3.75
        tangentMode: 10
      m_PreInfinity: 2
      m_PostInfinity: 2
    attribute: m_LocalPosition.y
    path: 
    classID: 4
    script: {fileID: 0}
  - curve:
      serializedVersion: 2
      m_Curve:
      - time: 0
        value: 0
        inSlope: 0
        outSlope: 0
        tangentMode: 10
      - time: .5
        value: 0
        inSlope: 0
        outSlope: 0
        tangentMode: 10
      m_PreInfinity: 2
      m_PostInfinity: 2
    attribute: m_LocalPosition.z
    path: 
    classID: 4
    script: {fileID: 0}
  - curve:
      serializedVersion: 2
      m_Curve:
      - time: 0
        value: 0
        inSlope: 2
        outSlope: 2
        tangentMode: 10
      - time: .5
        value: 1
        inSlope: 2
        outSlope: 2
        tangentMode: 10
      m_PreInfinity: 2
      m_PostInfinity: 2
    attribute: m_LocalScale.z
    path: 
    classID: 4
    script: {fileID: 0}
  - curve:
      serializedVersion: 2
      m_Curve:
      - time: 0
        value: 0
        inSlope: 2
        outSlope: 2
        tangentMode: 10
      - time: .5
        value: 1
        inSlope: 2
        outSlope: 2
        tangentMode: 10
      m_PreInfinity: 2
      m_PostInfinity: 2
    attribute: m_LocalScale.y
    path: 
    classID: 4
    script: {fileID: 0}
  - curve:
      serializedVersion: 2
      m_Curve:
      - time: 0
        value: 0
        inSlope: 2
        outSlope: 2
        tangentMode: 10
      - time: .5
        value: 1
        inSlope: 2
        outSlope: 2
        tangentMode: 10
      m_PreInfinity: 2
      m_PostInfinity: 2
    attribute: m_LocalScale.x
    path: 
    classID: 4
    script: {fileID: 0}
  - curve:
      serializedVersion: 2
      m_Curve:
      - time: 0
        value: 0
        inSlope: 0
        outSlope: 0
        tangentMode: 0
      - time: .0166666675
        value: 0
        inSlope: 0
        outSlope: 0
        tangentMode: 0
      - time: .0333333351
        value: 0
        inSlope: 0
        outSlope: 0
        tangentMode: 0
      - time: .0500000045
        value: 0
        inSlope: 0
        outSlope: 0
        tangentMode: 0
      - time: .0666666701
        value: 0
        inSlope: 0
        outSlope: 0
        tangentMode: 0
      - time: .0833333358
        value: 0
        inSlope: 0
        outSlope: 0
        tangentMode: 0
      - time: .100000001
        value: 0
        inSlope: 0
        outSlope: 0
        tangentMode: 0
      - time: .116666667
        value: 0
        inSlope: 0
        outSlope: 0
        tangentMode: 0
      - time: .13333334
        value: 0
        inSlope: 0
        outSlope: 0
        tangentMode: 0
      - time: .150000006
        value: 0
        inSlope: 0
        outSlope: 0
        tangentMode: 0
      - time: .166666672
        value: 0
        inSlope: 0
        outSlope: 0
        tangentMode: 0
      - time: .183333337
        value: 0
        inSlope: 0
        outSlope: 0
        tangentMode: 0
      - time: .200000003
        value: 0
        inSlope: 0
        outSlope: 0
        tangentMode: 0
      - time: .216666669
        value: 0
        inSlope: 0
        outSlope: 0
        tangentMode: 0
      - time: .233333334
        value: 0
        inSlope: 0
        outSlope: 0
        tangentMode: 0
      - time: .25
        value: 0
        inSlope: 0
        outSlope: 0
        tangentMode: 0
      - time: .266666681
        value: 0
        inSlope: 0
        outSlope: 0
        tangentMode: 0
      - time: .283333361
        value: 0
        inSlope: 0
        outSlope: 0
        tangentMode: 0
      - time: .300000042
        value: 0
        inSlope: 0
        outSlope: 0
        tangentMode: 0
      - time: .316666722
        value: 0
        inSlope: 0
        outSlope: 0
        tangentMode: 0
      - time: .333333403
        value: 0
        inSlope: 0
        outSlope: 0
        tangentMode: 0
      - time: .350000083
        value: 0
        inSlope: 0
        outSlope: 0
        tangentMode: 0
      - time: .366666764
        value: 0
        inSlope: 0
        outSlope: 0
        tangentMode: 0
      - time: .383333445
        value: 0
        inSlope: 0
        outSlope: 0
        tangentMode: 0
      - time: .400000125
        value: 0
        inSlope: 0
        outSlope: 0
        tangentMode: 0
      - time: .416666806
        value: 0
        inSlope: 0
        outSlope: 0
        tangentMode: 0
      - time: .433333486
        value: 0
        inSlope: 0
        outSlope: 0
        tangentMode: 0
      - time: .450000167
        value: 0
        inSlope: 0
        outSlope: 0
        tangentMode: 0
      - time: .466666847
        value: 0
        inSlope: 0
        outSlope: 0
        tangentMode: 0
      - time: .483333528
        value: 0
        inSlope: 0
        outSlope: 0
        tangentMode: 0
      - time: .5
        value: 0
        inSlope: 0
        outSlope: 0
        tangentMode: 0
      m_PreInfinity: 2
      m_PostInfinity: 2
    attribute: m_LocalRotation.x
    path: 
    classID: 4
    script: {fileID: 0}
  - curve:
      serializedVersion: 2
      m_Curve:
      - time: 0
        value: 0
        inSlope: 0
        outSlope: 0
        tangentMode: 0
      - time: .0166666675
        value: 0
        inSlope: 0
        outSlope: 0
        tangentMode: 0
      - time: .0333333351
        value: 0
        inSlope: 0
        outSlope: 0
        tangentMode: 0
      - time: .0500000045
        value: 0
        inSlope: 0
        outSlope: 0
        tangentMode: 0
      - time: .0666666701
        value: 0
        inSlope: 0
        outSlope: 0
        tangentMode: 0
      - time: .0833333358
        value: 0
        inSlope: 0
        outSlope: 0
        tangentMode: 0
      - time: .100000001
        value: 0
        inSlope: 0
        outSlope: 0
        tangentMode: 0
      - time: .116666667
        value: 0
        inSlope: 0
        outSlope: 0
        tangentMode: 0
      - time: .13333334
        value: 0
        inSlope: 0
        outSlope: 0
        tangentMode: 0
      - time: .150000006
        value: 0
        inSlope: 0
        outSlope: 0
        tangentMode: 0
      - time: .166666672
        value: 0
        inSlope: 0
        outSlope: 0
        tangentMode: 0
      - time: .183333337
        value: 0
        inSlope: 0
        outSlope: 0
        tangentMode: 0
      - time: .200000003
        value: 0
        inSlope: 0
        outSlope: 0
        tangentMode: 0
      - time: .216666669
        value: 0
        inSlope: 0
        outSlope: 0
        tangentMode: 0
      - time: .233333334
        value: 0
        inSlope: 0
        outSlope: 0
        tangentMode: 0
      - time: .25
        value: 0
        inSlope: 0
        outSlope: 0
        tangentMode: 0
      - time: .266666681
        value: 0
        inSlope: 0
        outSlope: 0
        tangentMode: 0
      - time: .283333361
        value: 0
        inSlope: 0
        outSlope: 0
        tangentMode: 0
      - time: .300000042
        value: 0
        inSlope: 0
        outSlope: 0
        tangentMode: 0
      - time: .316666722
        value: 0
        inSlope: 0
        outSlope: 0
        tangentMode: 0
      - time: .333333403
        value: 0
        inSlope: 0
        outSlope: 0
        tangentMode: 0
      - time: .350000083
        value: 0
        inSlope: 0
        outSlope: 0
        tangentMode: 0
      - time: .366666764
        value: 0
        inSlope: 0
        outSlope: 0
        tangentMode: 0
      - time: .383333445
        value: 0
        inSlope: 0
        outSlope: 0
        tangentMode: 0
      - time: .400000125
        value: 0
        inSlope: 0
        outSlope: 0
        tangentMode: 0
      - time: .416666806
        value: 0
        inSlope: 0
        outSlope: 0
        tangentMode: 0
      - time: .433333486
        value: 0
        inSlope: 0
        outSlope: 0
        tangentMode: 0
      - time: .450000167
        value: 0
        inSlope: 0
        outSlope: 0
        tangentMode: 0
      - time: .466666847
        value: 0
        inSlope: 0
        outSlope: 0
        tangentMode: 0
      - time: .483333528
        value: 0
        inSlope: 0
        outSlope: 0
        tangentMode: 0
      - time: .5
        value: 0
        inSlope: 0
        outSlope: 0
        tangentMode: 0
      m_PreInfinity: 2
      m_PostInfinity: 2
    attribute: m_LocalRotation.y
    path: 
    classID: 4
    script: {fileID: 0}
  - curve:
      serializedVersion: 2
      m_Curve:
      - time: 0
        value: 0
        inSlope: 12.4747114
        outSlope: 12.4747114
        tangentMode: 0
      - time: .0166666675
        value: .207911864
        inSlope: 12.2021084
        outSlope: 12.2021084
        tangentMode: 0
      - time: .0333333351
        value: .40673694
        inSlope: 11.3962154
        outSlope: 11.3962154
        tangentMode: 0
      - time: .0500000045
        value: .587785721
        inSlope: 10.0922499
        outSlope: 10.0922499
        tangentMode: 0
      - time: .0666666701
        value: .743145287
        inSlope: 8.34720421
        outSlope: 8.34720421
        tangentMode: 0
      - time: .0833333358
        value: .866025865
        inSlope: 6.23734665
        outSlope: 6.23734665
        tangentMode: 0
      - time: .100000001
        value: .951056838
        inSlope: 3.85488534
        outSlope: 3.85488534
        tangentMode: 0
      - time: .116666667
        value: .994522035
        inSlope: 1.30394709
        outSlope: 1.30394709
        tangentMode: 0
      - time: .13333334
        value: .994521737
        inSlope: -1.30397928
        outSlope: -1.30397928
        tangentMode: 0
      - time: .150000006
        value: .951056063
        inSlope: -3.85491586
        outSlope: -3.85491586
        tangentMode: 0
      - time: .166666672
        value: .866024554
        inSlope: -6.23737192
        outSlope: -6.23737192
        tangentMode: 0
      - time: .183333337
        value: .743143678
        inSlope: -8.34723377
        outSlope: -8.34723377
        tangentMode: 0
      - time: .200000003
        value: .587783456
        inSlope: -10.0922728
        outSlope: -10.0922728
        tangentMode: 0
      - time: .216666669
        value: .406734616
        inSlope: -11.3962259
        outSlope: -11.3962259
        tangentMode: 0
      - time: .233333334
        value: .207909286
        inSlope: -12.2021141
        outSlope: -12.2021141
        tangentMode: 0
      - time: .25
        value: -2.47160847e-06
        inSlope: -12.4747047
        outSlope: -12.4747047
        tangentMode: 0
      - time: .266666681
        value: -.207914352
        inSlope: -12.202096
        outSlope: -12.202096
        tangentMode: 0
      - time: .283333361
        value: -.406739354
        inSlope: -11.3962059
        outSlope: -11.3962059
        tangentMode: 0
      - time: .300000042
        value: -.587788224
        inSlope: -10.0922337
        outSlope: -10.0922337
        tangentMode: 0
      - time: .316666722
        value: -.743147433
        inSlope: -8.34716702
        outSlope: -8.34716702
        tangentMode: 0
      - time: .333333403
        value: -.866027355
        inSlope: -6.23731136
        outSlope: -6.23731136
        tangentMode: 0
      - time: .350000083
        value: -.951057971
        inSlope: -3.85484791
        outSlope: -3.85484791
        tangentMode: 0
      - time: .366666764
        value: -.994522393
        inSlope: -1.3039012
        outSlope: -1.3039012
        tangentMode: 0
      - time: .383333445
        value: -.994521379
        inSlope: 1.30402458
        outSlope: 1.30402458
        tangentMode: 0
      - time: .400000125
        value: -.951054871
        inSlope: 3.85496068
        outSlope: 3.85496068
        tangentMode: 0
      - time: .416666806
        value: -.866022587
        inSlope: 6.2374239
        outSlope: 6.2374239
        tangentMode: 0
      - time: .433333486
        value: -.743140578
        inSlope: 8.34727287
        outSlope: 8.34727287
        tangentMode: 0
      - time: .450000167
        value: -.587779939
        inSlope: 10.0922976
        outSlope: 10.0922976
        tangentMode: 0
      - time: .466666847
        value: -.406730384
        inSlope: 11.396246
        outSlope: 11.396246
        tangentMode: 0
      - time: .483333528
        value: -.207904756
        inSlope: 12.2021275
        outSlope: 12.2021275
        tangentMode: 0
      - time: .5
        value: 4.94321694e-06
        inSlope: 12.4747276
        outSlope: 12.4747276
        tangentMode: 0
      m_PreInfinity: 2
      m_PostInfinity: 2
    attribute: m_LocalRotation.z
    path: 
    classID: 4
    script: {fileID: 0}
  - curve:
      serializedVersion: 2
      m_Curve:
      - time: 0
        value: 1
        inSlope: -1.3111459
        outSlope: -1.3111459
        tangentMode: 0
      - time: .0166666675
        value: .978147566
        inSlope: -2.59364057
        outSlope: -2.59364057
        tangentMode: 0
      - time: .0333333351
        value: .91354531
        inSlope: -5.07392693
        outSlope: -5.07392693
        tangentMode: 0
      - time: .0500000045
        value: .809016645
        inSlope: -7.33245659
        outSlope: -7.33245659
        tangentMode: 0
      - time: .0666666701
        value: .669130087
        inSlope: -9.27052307
        outSlope: -9.27052307
        tangentMode: 0
      - time: .0833333358
        value: .499999255
        inSlope: -10.8034258
        outSlope: -10.8034258
        tangentMode: 0
      - time: .100000001
        value: .30901593
        inSlope: -11.8641615
        outSlope: -11.8641615
        tangentMode: 0
      - time: .116666667
        value: .104527235
        inSlope: -12.4063702
        outSlope: -12.4063702
        tangentMode: 0
      - time: .13333334
        value: -.104529813
        inSlope: -12.4063663
        outSlope: -12.4063663
        tangentMode: 0
      - time: .150000006
        value: -.309018403
        inSlope: -11.864151
        outSlope: -11.864151
        tangentMode: 0
      - time: .166666672
        value: -.50000149
        inSlope: -10.8034048
        outSlope: -10.8034048
        tangentMode: 0
      - time: .183333337
        value: -.669131875
        inSlope: -9.27050495
        outSlope: -9.27050495
        tangentMode: 0
      - time: .200000003
        value: -.809018314
        inSlope: -7.33243561
        outSlope: -7.33243561
        tangentMode: 0
      - time: .216666669
        value: -.913546383
        inSlope: -5.07389402
        outSlope: -5.07389402
        tangentMode: 0
      - time: .233333334
        value: -.978148103
        inSlope: -2.59360862
        outSlope: -2.59360862
        tangentMode: 0
      - time: .25
        value: -1
        inSlope: 3.15904617e-05
        outSlope: 3.15904617e-05
        tangentMode: 0
      - time: .266666681
        value: -.97814703
        inSlope: 2.59367061
        outSlope: 2.59367061
        tangentMode: 0
      - time: .283333361
        value: -.913544238
        inSlope: 5.07396078
        outSlope: 5.07396078
        tangentMode: 0
      - time: .300000042
        value: -.809014857
        inSlope: 7.33248997
        outSlope: 7.33248997
        tangentMode: 0
      - time: .316666722
        value: -.669127703
        inSlope: 9.27054024
        outSlope: 9.27054024
        tangentMode: 0
      - time: .333333403
        value: -.499996603
        inSlope: 10.8034458
        outSlope: 10.8034458
        tangentMode: 0
      - time: .350000083
        value: -.309012562
        inSlope: 11.8641796
        outSlope: 11.8641796
        tangentMode: 0
      - time: .366666764
        value: -.104523592
        inSlope: 12.406374
        outSlope: 12.406374
        tangentMode: 0
      - time: .383333445
        value: .104533575
        inSlope: 12.4063606
        outSlope: 12.4063606
        tangentMode: 0
      - time: .400000125
        value: .309022129
        inSlope: 11.8641291
        outSlope: 11.8641291
        tangentMode: 0
      - time: .416666806
        value: .500004888
        inSlope: 10.8033867
        outSlope: 10.8033867
        tangentMode: 0
      - time: .433333486
        value: .669135332
        inSlope: 9.27047157
        outSlope: 9.27047157
        tangentMode: 0
      - time: .450000167
        value: .809020877
        inSlope: 7.33238077
        outSlope: 7.33238077
        tangentMode: 0
      - time: .466666847
        value: .913548231
        inSlope: 5.07384109
        outSlope: 5.07384109
        tangentMode: 0
      - time: .483333528
        value: .978149056
        inSlope: 2.59355903
        outSlope: 2.59355903
        tangentMode: 0
      - time: .5
        value: 1
        inSlope: 1.31107187
        outSlope: 1.31107187
        tangentMode: 0
      m_PreInfinity: 2
      m_PostInfinity: 2
    attribute: m_LocalRotation.w
    path: 
    classID: 4
    script: {fileID: 0}
  m_EulerEditorCurves:
  - curve:
      serializedVersion: 2
      m_Curve:
      - time: 0
        value: 0
        inSlope: 0
        outSlope: 0
        tangentMode: 10
      - time: .5
        value: 0
        inSlope: 0
        outSlope: 0
        tangentMode: 10
      m_PreInfinity: 2
      m_PostInfinity: 2
    attribute: localEulerAnglesBaked.x
    path: 
    classID: 4
    script: {fileID: 0}
  - curve:
      serializedVersion: 2
      m_Curve:
      - time: 0
        value: 0
        inSlope: 0
        outSlope: 0
        tangentMode: 10
      - time: .5
        value: 0
        inSlope: 0
        outSlope: 0
        tangentMode: 10
      m_PreInfinity: 2
      m_PostInfinity: 2
    attribute: localEulerAnglesBaked.y
    path: 
    classID: 4
    script: {fileID: 0}
  - curve:
      serializedVersion: 2
      m_Curve:
      - time: 0
        value: 0
        inSlope: 1440.00098
        outSlope: 1440.00098
        tangentMode: 10
      - time: .5
        value: 720.000488
        inSlope: 1440.00098
        outSlope: 1440.00098
        tangentMode: 10
      m_PreInfinity: 2
      m_PostInfinity: 2
    attribute: localEulerAnglesBaked.z
    path: 
    classID: 4
    script: {fileID: 0}
  m_Events: []
